^E:\EXERCISES\NDI_AVER_TEST\NDITRACKINGTHREAD.H
D:\qt\bin\moc.exe  -DUNICODE -DWIN32 -DQT_THREAD_SUPPORT -DQT_DLL -DQT_GUI_LIB -DQT_CORE_LIB -DQT_HAVE_MMX -DQT_HAVE_3DNOW -DQT_HAVE_SSE -DQT_HAVE_MMXEXT -DQT_HAVE_SSE2 -I"d:\qt\include\QtCore" -I"d:\qt\include\QtGui" -I"d:\qt\include" -I"." -I"..\..\compiles\opencv\install\include" -I"d:\qt\include\ActiveQt" -I"debug" -Id:\qt\mkspecs\win32-msvc2012 -D_MSC_VER=1700 -DWIN32 NdiTrackingThread.h -o debug\moc_NdiTrackingThread.cpp
^E:\EXERCISES\NDI_AVER_TEST\COMPORTSETTINGSDIALOG.H
D:\qt\bin\moc.exe  -DUNICODE -DWIN32 -DQT_THREAD_SUPPORT -DQT_DLL -DQT_GUI_LIB -DQT_CORE_LIB -DQT_HAVE_MMX -DQT_HAVE_3DNOW -DQT_HAVE_SSE -DQT_HAVE_MMXEXT -DQT_HAVE_SSE2 -I"d:\qt\include\QtCore" -I"d:\qt\include\QtGui" -I"d:\qt\include" -I"." -I"..\..\compiles\opencv\install\include" -I"d:\qt\include\ActiveQt" -I"debug" -Id:\qt\mkspecs\win32-msvc2012 -D_MSC_VER=1700 -DWIN32 comportsettingsdialog.h -o debug\moc_comportsettingsdialog.cpp
^E:\EXERCISES\NDI_AVER_TEST\AVER\ENDOGADGET.H
D:\qt\bin\moc.exe  -DUNICODE -DWIN32 -DQT_THREAD_SUPPORT -DQT_DLL -DQT_GUI_LIB -DQT_CORE_LIB -DQT_HAVE_MMX -DQT_HAVE_3DNOW -DQT_HAVE_SSE -DQT_HAVE_MMXEXT -DQT_HAVE_SSE2 -I"d:\qt\include\QtCore" -I"d:\qt\include\QtGui" -I"d:\qt\include" -I"." -I"..\..\compiles\opencv\install\include" -I"d:\qt\include\ActiveQt" -I"debug" -Id:\qt\mkspecs\win32-msvc2012 -D_MSC_VER=1700 -DWIN32 aver\endogadget.h -o debug\moc_endogadget.cpp
^E:\EXERCISES\NDI_AVER_TEST\KNEEMOTIONOBSERVER.H
D:\qt\bin\moc.exe  -DUNICODE -DWIN32 -DQT_THREAD_SUPPORT -DQT_DLL -DQT_GUI_LIB -DQT_CORE_LIB -DQT_HAVE_MMX -DQT_HAVE_3DNOW -DQT_HAVE_SSE -DQT_HAVE_MMXEXT -DQT_HAVE_SSE2 -I"d:\qt\include\QtCore" -I"d:\qt\include\QtGui" -I"d:\qt\include" -I"." -I"..\..\compiles\opencv\install\include" -I"d:\qt\include\ActiveQt" -I"debug" -Id:\qt\mkspecs\win32-msvc2012 -D_MSC_VER=1700 -DWIN32 kneemotionobserver.h -o debug\moc_kneemotionobserver.cpp
^E:\EXERCISES\NDI_AVER_TEST\MAINWINDOW.H
D:\qt\bin\moc.exe  -DUNICODE -DWIN32 -DQT_THREAD_SUPPORT -DQT_DLL -DQT_GUI_LIB -DQT_CORE_LIB -DQT_HAVE_MMX -DQT_HAVE_3DNOW -DQT_HAVE_SSE -DQT_HAVE_MMXEXT -DQT_HAVE_SSE2 -I"d:\qt\include\QtCore" -I"d:\qt\include\QtGui" -I"d:\qt\include" -I"." -I"..\..\compiles\opencv\install\include" -I"d:\qt\include\ActiveQt" -I"debug" -Id:\qt\mkspecs\win32-msvc2012 -D_MSC_VER=1700 -DWIN32 mainwindow.h -o debug\moc_mainwindow.cpp
^E:\EXERCISES\NDI_AVER_TEST\ROMFILEDIALOG.H
D:\qt\bin\moc.exe  -DUNICODE -DWIN32 -DQT_THREAD_SUPPORT -DQT_DLL -DQT_GUI_LIB -DQT_CORE_LIB -DQT_HAVE_MMX -DQT_HAVE_3DNOW -DQT_HAVE_SSE -DQT_HAVE_MMXEXT -DQT_HAVE_SSE2 -I"d:\qt\include\QtCore" -I"d:\qt\include\QtGui" -I"d:\qt\include" -I"." -I"..\..\compiles\opencv\install\include" -I"d:\qt\include\ActiveQt" -I"debug" -Id:\qt\mkspecs\win32-msvc2012 -D_MSC_VER=1700 -DWIN32 romfiledialog.h -o debug\moc_romfiledialog.cpp
^E:\EXERCISES\NDI_AVER_TEST\AVER\VIRTUALAVERCAPTURE.H
D:\qt\bin\moc.exe  -DUNICODE -DWIN32 -DQT_THREAD_SUPPORT -DQT_DLL -DQT_GUI_LIB -DQT_CORE_LIB -DQT_HAVE_MMX -DQT_HAVE_3DNOW -DQT_HAVE_SSE -DQT_HAVE_MMXEXT -DQT_HAVE_SSE2 -I"d:\qt\include\QtCore" -I"d:\qt\include\QtGui" -I"d:\qt\include" -I"." -I"..\..\compiles\opencv\install\include" -I"d:\qt\include\ActiveQt" -I"debug" -Id:\qt\mkspecs\win32-msvc2012 -D_MSC_VER=1700 -DWIN32 aver\virtualavercapture.h -o debug\moc_virtualavercapture.cpp
^E:\EXERCISES\NDI_AVER_TEST\SIMPLENDI.QRC
D:\qt\bin\rcc.exe -name SimpleNDI SimpleNDI.qrc -o debug\qrc_SimpleNDI.cpp
